------------------------------------------------------------------------
r1098401 | lueck | 2010-03-04 05:57:38 +1300 (Thu, 04 Mar 2010) | 1 line

doc backport from trunk
------------------------------------------------------------------------
r1105401 | scripty | 2010-03-20 15:31:46 +1300 (Sat, 20 Mar 2010) | 1 line

SVN_SILENT made messages (.desktop file)
------------------------------------------------------------------------
